sim.vcd
$date
	Fri Dec  2 15:41:20 2022
$end
$version
	Icarus Verilog
$end
$timescale
	10ps
$end
$scope module riscv_tb $end
$var reg 1 ! clk $end
$var reg 1 " rstn $end
$var integer 32 # i [31:0] $end
$scope module my_cpu $end
$var wire 1 ! clk $end
$var wire 1 $ ex_branch_taken_and_jump $end
$var wire 1 " rstn $end
$var wire 32 % wb_write_back_mux_out [31:0] $end
$var wire 2 & pcwrite [1:0] $end
$var wire 32 ' next_pc [31:0] $end
$var wire 2 ( memwb_out_wb_toreg [1:0] $end
$var wire 1 ) memwb_out_wb_regwrite $end
$var wire 32 * memwb_out_wb_readdata [31:0] $end
$var wire 5 + memwb_out_wb_rd [4:0] $end
$var wire 32 , memwb_out_wb_pc_plus_4 [31:0] $end
$var wire 32 - memwb_out_wb_alu_result [31:0] $end
$var wire 32 . mem_readdata [31:0] $end
$var wire 32 / ifid_out_pc_plus_4 [31:0] $end
$var wire 32 0 ifid_out_pc [31:0] $end
$var wire 32 1 ifid_out_instruction [31:0] $end
$var wire 32 2 ifid_in_pc_plus_4 [31:0] $end
$var wire 32 3 ifid_in_instruction [31:0] $end
$var wire 1 4 ifid_flush $end
$var wire 1 5 ifid_bubble $end
$var wire 2 6 idex_out_ex_toreg [1:0] $end
$var wire 32 7 idex_out_ex_sextimm [31:0] $end
$var wire 5 8 idex_out_ex_rs2 [4:0] $end
$var wire 5 9 idex_out_ex_rs1 [4:0] $end
$var wire 1 : idex_out_ex_regwrite $end
$var wire 32 ; idex_out_ex_readdata2 [31:0] $end
$var wire 32 < idex_out_ex_readdata1 [31:0] $end
$var wire 5 = idex_out_ex_rd [4:0] $end
$var wire 32 > idex_out_ex_pc_plus_4 [31:0] $end
$var wire 32 ? idex_out_ex_pc [31:0] $end
$var wire 1 @ idex_out_ex_memwrite $end
$var wire 1 A idex_out_ex_memread $end
$var wire 2 B idex_out_ex_jump [1:0] $end
$var wire 1 C idex_out_ex_immediate $end
$var wire 7 D idex_out_ex_funct7 [6:0] $end
$var wire 3 E idex_out_ex_funct3 [2:0] $end
$var wire 1 F idex_out_ex_branch $end
$var wire 2 G idex_out_ex_alusrc1 [1:0] $end
$var wire 1 H idex_out_ex_add $end
$var wire 1 I idex_bubble $end
$var wire 2 J id_toreg [1:0] $end
$var wire 32 K id_sextimm [31:0] $end
$var wire 1 L id_regwrite $end
$var wire 32 M id_readdata2 [31:0] $end
$var wire 32 N id_readdata1 [31:0] $end
$var wire 1 O id_memwrite $end
$var wire 1 P id_memread $end
$var wire 2 Q id_jump [1:0] $end
$var wire 1 R id_immediate $end
$var wire 1 S id_branch $end
$var wire 2 T id_alusrc1 [1:0] $end
$var wire 1 U id_add $end
$var wire 2 V forwardB [1:0] $end
$var wire 2 W forwardA [1:0] $end
$var wire 32 X exmem_out_mem_writedata [31:0] $end
$var wire 2 Y exmem_out_mem_toreg [1:0] $end
$var wire 1 Z exmem_out_mem_taken $end
$var wire 1 [ exmem_out_mem_regwrite $end
$var wire 5 \ exmem_out_mem_rd [4:0] $end
$var wire 32 ] exmem_out_mem_pc_target [31:0] $end
$var wire 32 ^ exmem_out_mem_pc_plus_4 [31:0] $end
$var wire 1 _ exmem_out_mem_memwrite $end
$var wire 1 ` exmem_out_mem_memread $end
$var wire 3 a exmem_out_mem_funct3 [2:0] $end
$var wire 32 b exmem_out_mem_alu_result [31:0] $end
$var wire 1 c exmem_bubble $end
$var wire 32 d ex_target_pc [31:0] $end
$var wire 32 e ex_rs2_mux_out [31:0] $end
$var wire 32 f ex_rs1_mux_out [31:0] $end
$var wire 32 g ex_pc_plus_immediate [31:0] $end
$var wire 1 h ex_branch_taken $end
$var wire 32 i ex_alu_result [31:0] $end
$var wire 4 j ex_alu_operation [3:0] $end
$var wire 32 k ex_alu_input2 [31:0] $end
$var wire 32 l ex_alu_input1 [31:0] $end
$var reg 32 m PC [31:0] $end
$scope module m_alu $end
$var wire 4 n operation [3:0] $end
$var wire 32 o inputy [31:0] $end
$var wire 32 p inputx [31:0] $end
$var reg 32 q result [31:0] $end
$upscope $end
$scope module m_alu_control $end
$var wire 1 C immediate $end
$var wire 7 r funct7 [6:0] $end
$var wire 3 s funct3 [2:0] $end
$var wire 4 t funct [3:0] $end
$var wire 2 u alu_op [1:0] $end
$var wire 1 H add $end
$var reg 4 v operation [3:0] $end
$upscope $end
$scope module m_alu_src1_mux $end
$var wire 32 w in2 [31:0] $end
$var wire 2 x select [1:0] $end
$var wire 32 y in3 [31:0] $end
$var wire 32 z in1 [31:0] $end
$var reg 32 { out [31:0] $end
$upscope $end
$scope module m_alu_src2_mux $end
$var wire 1 C select $end
$var wire 32 | in2 [31:0] $end
$var wire 32 } in1 [31:0] $end
$var reg 32 ~ out [31:0] $end
$upscope $end
$scope module m_branch_control $end
$var wire 32 !" inputy [31:0] $end
$var wire 32 "" inputx [31:0] $end
$var wire 3 #" funct3 [2:0] $end
$var wire 1 F branch $end
$var reg 1 h taken $end
$upscope $end
$scope module m_branch_target_adder $end
$var wire 32 $" inputy [31:0] $end
$var wire 32 %" inputx [31:0] $end
$var reg 32 &" result [31:0] $end
$upscope $end
$scope module m_control $end
$var wire 7 '" opcode [6:0] $end
$var wire 2 (" toreg [1:0] $end
$var wire 1 L regwrite $end
$var wire 1 O memwrite $end
$var wire 1 P memread $end
$var wire 2 )" jump [1:0] $end
$var wire 1 R immediate $end
$var wire 1 S branch $end
$var wire 2 *" alusrc1 [1:0] $end
$var wire 1 U add $end
$var reg 12 +" controls [11:0] $end
$upscope $end
$scope module m_data_memory $end
$var wire 1 ! clk $end
$var wire 2 ," maskmode [1:0] $end
$var wire 1 -" sext $end
$var wire 32 ." writedata [31:0] $end
$var wire 1 _ memwrite $end
$var wire 1 ` memread $end
$var wire 8 /" address_internal [7:0] $end
$var wire 32 0" address [31:0] $end
$var reg 32 1" readdata [31:0] $end
$upscope $end
$scope module m_exmem_reg $end
$var wire 1 ! clk $end
$var wire 32 2" ex_alu_result [31:0] $end
$var wire 1 $ ex_taken $end
$var wire 1 c exmem_bubble $end
$var wire 32 3" ex_writedata [31:0] $end
$var wire 2 4" ex_toreg [1:0] $end
$var wire 1 : ex_regwrite $end
$var wire 5 5" ex_rd [4:0] $end
$var wire 32 6" ex_pc_target [31:0] $end
$var wire 32 7" ex_pc_plus_4 [31:0] $end
$var wire 1 @ ex_memwrite $end
$var wire 1 A ex_memread $end
$var wire 3 8" ex_funct3 [2:0] $end
$var reg 32 9" mem_alu_result [31:0] $end
$var reg 3 :" mem_funct3 [2:0] $end
$var reg 1 ` mem_memread $end
$var reg 1 _ mem_memwrite $end
$var reg 32 ;" mem_pc_plus_4 [31:0] $end
$var reg 32 <" mem_pc_target [31:0] $end
$var reg 5 =" mem_rd [4:0] $end
$var reg 1 [ mem_regwrite $end
$var reg 1 Z mem_taken $end
$var reg 2 >" mem_toreg [1:0] $end
$var reg 32 ?" mem_writedata [31:0] $end
$upscope $end
$scope module m_forwarding $end
$var wire 1 ! clk $end
$var wire 5 @" exmemrd [4:0] $end
$var wire 1 [ exmemrw $end
$var wire 5 A" rs2 [4:0] $end
$var wire 5 B" rs1 [4:0] $end
$var wire 1 ) memwbrw $end
$var wire 5 C" memwbrd [4:0] $end
$var reg 2 D" forwardA [1:0] $end
$var reg 2 E" forwardB [1:0] $end
$upscope $end
$scope module m_hazard $end
$var wire 1 ! clk $end
$var wire 1 Z exmem_taken $end
$var wire 5 F" rs1 [4:0] $end
$var wire 5 G" rs2 [4:0] $end
$var wire 1 H" stall_condition $end
$var wire 5 I" idex_rd [4:0] $end
$var wire 1 A idex_memread $end
$var reg 1 c exmem_bubble $end
$var reg 1 I idex_bubble $end
$var reg 1 5 ifid_bubble $end
$var reg 1 4 ifid_flush $end
$var reg 2 J" pcwrite [1:0] $end
$upscope $end
$scope module m_idex_reg $end
$var wire 1 ! clk $end
$var wire 1 U id_add $end
$var wire 2 K" id_alusrc1 [1:0] $end
$var wire 1 S id_branch $end
$var wire 3 L" id_funct3 [2:0] $end
$var wire 7 M" id_funct7 [6:0] $end
$var wire 1 R id_immediate $end
$var wire 2 N" id_jump [1:0] $end
$var wire 1 P id_memread $end
$var wire 1 O id_memwrite $end
$var wire 5 O" id_rd [4:0] $end
$var wire 1 L id_regwrite $end
$var wire 5 P" id_rs1 [4:0] $end
$var wire 5 Q" id_rs2 [4:0] $end
$var wire 2 R" id_toreg [1:0] $end
$var wire 1 I idex_bubble $end
$var wire 32 S" id_sextimm [31:0] $end
$var wire 32 T" id_readdata2 [31:0] $end
$var wire 32 U" id_readdata1 [31:0] $end
$var wire 32 V" id_pc_plus_4 [31:0] $end
$var wire 32 W" id_PC [31:0] $end
$var reg 32 X" ex_PC [31:0] $end
$var reg 1 H ex_add $end
$var reg 2 Y" ex_alusrc1 [1:0] $end
$var reg 1 F ex_branch $end
$var reg 3 Z" ex_funct3 [2:0] $end
$var reg 7 [" ex_funct7 [6:0] $end
$var reg 1 C ex_immediate $end
$var reg 2 \" ex_jump [1:0] $end
$var reg 1 A ex_memread $end
$var reg 1 @ ex_memwrite $end
$var reg 32 ]" ex_pc_plus_4 [31:0] $end
$var reg 5 ^" ex_rd [4:0] $end
$var reg 32 _" ex_readdata1 [31:0] $end
$var reg 32 `" ex_readdata2 [31:0] $end
$var reg 1 : ex_regwrite $end
$var reg 5 a" ex_rs1 [4:0] $end
$var reg 5 b" ex_rs2 [4:0] $end
$var reg 32 c" ex_sextimm [31:0] $end
$var reg 2 d" ex_toreg [1:0] $end
$upscope $end
$scope module m_ifid_reg $end
$var wire 1 ! clk $end
$var wire 32 e" if_PC [31:0] $end
$var wire 1 5 ifid_bubble $end
$var wire 1 4 ifid_flush $end
$var wire 32 f" if_pc_plus_4 [31:0] $end
$var wire 32 g" if_instruction [31:0] $end
$var reg 32 h" id_PC [31:0] $end
$var reg 32 i" id_instruction [31:0] $end
$var reg 32 j" id_pc_plus_4 [31:0] $end
$upscope $end
$scope module m_immediate_generator $end
$var wire 32 k" instruction [31:0] $end
$var wire 7 l" opcode [6:0] $end
$var reg 32 m" sextimm [31:0] $end
$upscope $end
$scope module m_instruction_memory $end
$var wire 32 n" address [31:0] $end
$var reg 32 o" instruction [31:0] $end
$upscope $end
$scope module m_memwb_reg $end
$var wire 1 ! clk $end
$var wire 32 p" mem_alu_result [31:0] $end
$var wire 32 q" mem_pc_plus_4 [31:0] $end
$var wire 5 r" mem_rd [4:0] $end
$var wire 32 s" mem_readdata [31:0] $end
$var wire 1 [ mem_regwrite $end
$var wire 2 t" mem_toreg [1:0] $end
$var reg 32 u" wb_alu_result [31:0] $end
$var reg 32 v" wb_pc_plus_4 [31:0] $end
$var reg 5 w" wb_rd [4:0] $end
$var reg 32 x" wb_readdata [31:0] $end
$var reg 1 ) wb_regwrite $end
$var reg 2 y" wb_toreg [1:0] $end
$upscope $end
$scope module m_next_pc_mux $end
$var wire 32 z" in2 [31:0] $end
$var wire 32 {" in3 [31:0] $end
$var wire 2 |" select [1:0] $end
$var wire 32 }" in1 [31:0] $end
$var reg 32 ~" out [31:0] $end
$upscope $end
$scope module m_pc_plus_4_adder $end
$var wire 32 !# inputx [31:0] $end
$var wire 32 "# inputy [31:0] $end
$var reg 32 ## result [31:0] $end
$upscope $end
$scope module m_register_file $end
$var wire 1 ! clk $end
$var wire 32 $# readdata1 [31:0] $end
$var wire 32 %# readdata2 [31:0] $end
$var wire 5 &# readreg1 [4:0] $end
$var wire 5 '# readreg2 [4:0] $end
$var wire 1 ) wen $end
$var wire 5 (# writereg [4:0] $end
$var wire 32 )# writedata [31:0] $end
$upscope $end
$scope module m_rs1_mux $end
$var wire 32 *# in1 [31:0] $end
$var wire 32 +# in2 [31:0] $end
$var wire 2 ,# select [1:0] $end
$var wire 32 -# in3 [31:0] $end
$var reg 32 .# out [31:0] $end
$upscope $end
$scope module m_rs2_mux $end
$var wire 32 /# in1 [31:0] $end
$var wire 32 0# in2 [31:0] $end
$var wire 2 1# select [1:0] $end
$var wire 32 2# in3 [31:0] $end
$var reg 32 3# out [31:0] $end
$upscope $end
$scope module m_targetPC_mux $end
$var wire 32 4# in1 [31:0] $end
$var wire 32 5# in2 [31:0] $end
$var wire 1 6# select $end
$var reg 32 7# out [31:0] $end
$upscope $end
$scope module m_write_back_mux $end
$var wire 32 8# in1 [31:0] $end
$var wire 32 9# in2 [31:0] $end
$var wire 32 :# in3 [31:0] $end
$var wire 2 ;# select [1:0] $end
$var reg 32 <# out [31:0] $end
$upscope $end
$upscope $end
$upscope $end
$enddefinitions $end
#0
$dumpvars
bx <#
bx ;#
bx :#
bx 9#
bx 8#
b0 7#
x6#
b0 5#
bx 4#
bx 3#
bx 2#
b0 1#
bx 0#
bx /#
bx .#
bx -#
b0 ,#
bx +#
bx *#
bx )#
bx (#
bx '#
bx &#
bx %#
bx $#
bx ##
b100 "#
bx !#
bx ~"
bx }"
b0 |"
bx {"
bx z"
bx y"
bx x"
bx w"
bx v"
bx u"
bx t"
b0 s"
bx r"
bx q"
bx p"
bx o"
bx n"
bx m"
bx l"
bx k"
bx j"
bx i"
bx h"
bx g"
bx f"
bx e"
bx d"
bx c"
bx b"
bx a"
bx `"
bx _"
bx ^"
bx ]"
bx \"
bx ["
bx Z"
bx Y"
bx X"
bx W"
bx V"
bx U"
bx T"
bx S"
bx R"
bx Q"
bx P"
bx O"
bx N"
bx M"
bx L"
bx K"
b0 J"
bx I"
xH"
bx G"
bx F"
b0 E"
b0 D"
bx C"
bx B"
bx A"
bx @"
bx ?"
bx >"
bx ="
bx <"
bx ;"
bx :"
bx 9"
bx 8"
bx 7"
b0 6"
bx 5"
bx 4"
bx 3"
b0 2"
b0 1"
bx 0"
bx /"
bx ."
x-"
bx ,"
bx +"
bx *"
bx )"
bx ("
bx '"
bx &"
bx %"
bx $"
bx #"
bx ""
bx !"
bx ~
bx }
bx |
b0 {
bx z
bx y
bx x
b0 w
bx v
bx u
bx t
bx s
bx r
b0 q
b0 p
bx o
bx n
bx m
b0 l
bx k
bx j
b0 i
xh
bx g
bx f
bx e
b0 d
0c
bx b
bx a
x`
x_
bx ^
bx ]
bx \
x[
xZ
bx Y
bx X
b0 W
b0 V
xU
bx T
xS
xR
bx Q
xP
xO
bx N
bx M
xL
bx K
bx J
0I
xH
bx G
xF
bx E
bx D
xC
bx B
xA
x@
bx ?
bx >
bx =
bx <
bx ;
x:
bx 9
bx 8
bx 7
bx 6
05
04
bx 3
bx 2
bx 1
bx 0
bx /
b0 .
bx -
bx ,
bx +
bx *
x)
bx (
bx '
b0 &
bx %
x$
bx #
0"
0!
$end
#500
b0 /"
b0 %
b0 )#
b0 -#
b0 2#
b0 <#
b0 3
b0 g"
b0 o"
b100 '
b100 ~"
b100 2
b100 f"
b100 }"
b100 ##
b0 b
b0 0"
b0 9"
b0 p"
b0 +#
b0 0#
b0 ]
b0 <"
b0 {"
b0 *
b0 x"
b0 9#
b0 m
b0 e"
b0 n"
b0 z"
b0 !#
1!
#1000
0!
#1500
0S
0P
b0 J
b0 ("
b0 R"
0U
0O
0L
0R
b0 T
b0 *"
b0 K"
b0 Q
b0 )"
b0 N"
b0 +"
b0 K
b0 S"
b0 m"
b0 l"
b0 O"
b0 Q"
b0 P"
b0 L"
b0 M"
b0 M
b0 T"
b0 %#
b0 '#
b0 N
b0 U"
b0 $#
b0 &#
b0 '"
b0 G"
b0 F"
b0 -
b0 u"
b0 8#
b0 1
b0 i"
b0 k"
b100 /
b100 V"
b100 j"
b0 0
b0 W"
b0 h"
1!
#2000
0!
#2500
b0 k
b0 o
b0 ~
0$
b0 e
b0 }
b0 !"
b0 3"
b0 3#
b0 f
b0 z
b0 ""
b0 .#
0H"
06#
b0 j
b0 n
b0 v
0h
b0 l
b0 p
b0 {
b0 g
b0 &"
b0 4#
b0 =
b0 5"
b0 I"
b0 ^"
b0 8
b0 A"
b0 b"
b0 9
b0 B"
b0 a"
b0 ;
b0 `"
b0 /#
b0 <
b0 _"
b0 *#
b0 t
b0 E
b0 s
b0 #"
b0 8"
b0 Z"
b0 D
b0 r
b0 ["
b0 7
b0 |
b0 $"
b0 c"
0:
b0 6
b0 4"
b0 d"
0@
0A
b0 B
b0 \"
b0 G
b0 x
b0 Y"
0C
b0 u
0H
0F
b100 >
b100 7"
b100 ]"
b0 ?
b0 y
b0 %"
b0 X"
1!
#3000
0!
#3500
0-"
b0 ,"
b0 \
b0 ="
b0 @"
b0 r"
b0 a
b0 :"
b0 X
b0 ."
b0 ?"
0[
b0 Y
b0 >"
b0 t"
0_
0`
0Z
b100 ^
b100 ;"
b100 q"
1!
#4000
0!
#4500
b0 +
b0 C"
b0 w"
b0 (#
0)
b0 (
b0 y"
b0 ;#
b100 ,
b100 v"
b100 :#
1!
#5000
0!
#5500
1!
#6000
0!
1"
#6500
b1000010000000000000001101111 3
b1000010000000000000001101111 g"
b1000010000000000000001101111 o"
b1000 '
b1000 ~"
b1000 2
b1000 f"
b1000 }"
b1000 ##
b100 m
b100 e"
b100 n"
b100 z"
b100 !#
1!
#7000
0!
#7500
b10 J
b10 ("
b10 R"
xU
1L
1R
bx T
bx *"
bx K"
b1 Q
b1 )"
b1 N"
b10x011xx01 +"
b11111110000000010000000100010011 3
b11111110000000010000000100010011 g"
b11111110000000010000000100010011 o"
b1100 '
b1100 ~"
b1100 2
b1100 f"
b1100 }"
b1100 ##
b10000100 K
b10000100 S"
b10000100 m"
b1101111 l"
b100 Q"
b100 M"
b100 '#
b1101111 '"
b100 G"
b1000 m
b1000 e"
b1000 n"
b1000 z"
b1000 !#
b1000010000000000000001101111 1
b1000010000000000000001101111 i"
b1000010000000000000001101111 k"
b1000 /
b1000 V"
b1000 j"
b100 0
b100 W"
b100 h"
1!
#8000
0!
#8500
b0 J
b0 ("
b0 R"
0U
b0 T
b0 *"
b0 K"
b0 Q
b0 )"
b0 N"
b110000 +"
1$
b10000100 i
b10000100 q
b10000100 2"
b10000100 5#
b10001000 d
b10001000 6"
b10001000 7#
b11111111111111111111111111100000 K
b11111111111111111111111111100000 S"
b11111111111111111111111111100000 m"
b10011 l"
b10 O"
b0 Q"
b10 P"
b1111111 M"
b0 '#
b1000000000 N
b1000000000 U"
b1000000000 $#
b10 &#
b10011 '"
b0 G"
b10 F"
b10000100 k
b10000100 o
b10000100 ~
b10001000 g
b10001000 &"
b10001000 4#
b100010010111000100011 3
b100010010111000100011 g"
b100010010111000100011 o"
b10000 '
b10000 ~"
b10000 2
b10000 f"
b10000 }"
b10000 ##
b11111110000000010000000100010011 1
b11111110000000010000000100010011 i"
b11111110000000010000000100010011 k"
b1100 /
b1100 V"
b1100 j"
b1000 0
b1000 W"
b1000 h"
b100 8
b100 A"
b100 b"
b100 D
b100 r
b100 ["
b10000100 7
b10000100 |
b10000100 $"
b10000100 c"
1:
b10 6
b10 4"
b10 d"
b1 B
b1 \"
bx G
bx x
bx Y"
1C
b1x u
xH
b1000 >
b1000 7"
b1000 ]"
b100 ?
b100 y
b100 %"
b100 X"
b1100 m
b1100 e"
b1100 n"
b1100 z"
b1100 !#
1!
#9000
0!
#9500
bx J
bx ("
bx R"
1U
1O
0L
b10100 '
b10100 ~"
b1000000000 l
b1000000000 p
b1000000000 {
b111100000 i
b111100000 q
b111100000 2"
b111100000 5#
0$
b11111111111111111111111111101000 d
b11111111111111111111111111101000 6"
b11111111111111111111111111101000 7#
b0xx11010000 +"
b100000010010110000100011 3
b100000010010110000100011 g"
b100000010010110000100011 o"
b10100 2
b10100 f"
b10100 }"
b10100 ##
b100001 /"
b1000000000 f
b1000000000 z
b1000000000 ""
b1000000000 .#
b1000 t
b11111111111111111111111111100000 k
b11111111111111111111111111100000 o
b11111111111111111111111111100000 ~
b11111111111111111111111111101000 g
b11111111111111111111111111101000 &"
b11111111111111111111111111101000 4#
b11100 K
b11100 S"
b11100 m"
b100011 l"
b11100 O"
b1 Q"
b10 L"
b0 M"
b1 '#
b100011 '"
b1 G"
b10000 m
b10000 e"
b10000 n"
b10000 z"
b10000 !#
b10000100 b
b10000100 0"
b10000100 9"
b10000100 p"
b10000100 +#
b10000100 0#
1[
b10 Y
b10 >"
b10 t"
1Z
b10001000 ]
b10001000 <"
b10001000 {"
b1000 ^
b1000 ;"
b1000 q"
b10 =
b10 5"
b10 I"
b10 ^"
b0 8
b0 A"
b0 b"
b10 9
b10 B"
b10 a"
b1000000000 <
b1000000000 _"
b1000000000 *#
b1111111 D
b1111111 r
b1111111 ["
b11111111111111111111111111100000 7
b11111111111111111111111111100000 |
b11111111111111111111111111100000 $"
b11111111111111111111111111100000 c"
b0 6
b0 4"
b0 d"
b0 B
b0 \"
b0 G
b0 x
b0 Y"
b10 u
0H
b1100 >
b1100 7"
b1100 ]"
b1000 ?
b1000 y
b1000 %"
b1000 X"
b100010010111000100011 1
b100010010111000100011 i"
b100010010111000100011 k"
b10000 /
b10000 V"
b10000 j"
b1100 0
b1100 W"
b1100 h"
1!
#10000
b10001000 '
b10001000 ~"
1c
1I
14
b10 &
b10 J"
b10 |"
0!
#10500
b0 J
b0 ("
b0 R"
0U
0O
0R
b0 +"
b0 i
b0 q
b0 2"
b0 5#
b0 d
b0 6"
b0 7#
b0 K
b0 S"
b0 m"
b0 l"
b0 O"
b0 Q"
b0 P"
b0 L"
b0 '#
b0 N
b0 U"
b0 $#
b0 &#
b0 '"
b0 G"
b0 F"
b0 t
b0 j
b0 n
b0 v
b0 k
b0 o
b0 ~
b0 l
b0 p
b0 {
b0 g
b0 &"
b0 4#
b0 /"
b0 f
b0 z
b0 ""
b0 .#
b1000 %
b1000 )#
b1000 -#
b1000 2#
b1000 <#
b11111110000000010000000100010011 3
b11111110000000010000000100010011 g"
b11111110000000010000000100010011 o"
b0 '
b0 ~"
b10001100 2
b10001100 f"
b10001100 }"
b10001100 ##
b0 1
b0 i"
b0 k"
b0 /
b0 V"
b0 j"
b0 0
b0 W"
b0 h"
b0 =
b0 5"
b0 I"
b0 ^"
b0 9
b0 B"
b0 a"
b0 <
b0 _"
b0 *#
b0 D
b0 r
b0 ["
b0 7
b0 |
b0 $"
b0 c"
0:
b0 u
0C
b0 >
b0 7"
b0 ]"
b0 ?
b0 y
b0 %"
b0 X"
b0 b
b0 0"
b0 9"
b0 p"
b0 +#
b0 0#
0[
b0 Y
b0 >"
b0 t"
0Z
b0 ]
b0 <"
b0 {"
b0 ^
b0 ;"
b0 q"
b10000100 -
b10000100 u"
b10000100 8#
1)
b10 (
b10 y"
b10 ;#
b1000 ,
b1000 v"
b1000 :#
b10001000 m
b10001000 e"
b10001000 n"
b10001000 z"
b10001000 !#
1!
#11000
b10001100 '
b10001100 ~"
0I
b0 &
b0 J"
b0 |"
0c
04
0!
#11500
1L
1R
b110000 +"
b100010010111000100011 3
b100010010111000100011 g"
b100010010111000100011 o"
b10010000 '
b10010000 ~"
b10010000 2
b10010000 f"
b10010000 }"
b10010000 ##
b0 %
b0 )#
b0 -#
b0 2#
b0 <#
b11111111111111111111111111100000 K
b11111111111111111111111111100000 S"
b11111111111111111111111111100000 m"
b10011 l"
b10 O"
b10 P"
b1111111 M"
b1000000000 N
b1000000000 U"
b1000000000 $#
b10 &#
b10011 '"
b10 F"
b10001100 m
b10001100 e"
b10001100 n"
b10001100 z"
b10001100 !#
b0 -
b0 u"
b0 8#
0)
b0 (
b0 y"
b0 ;#
b0 ,
b0 v"
b0 :#
b11111110000000010000000100010011 1
b11111110000000010000000100010011 i"
b11111110000000010000000100010011 k"
b10001100 /
b10001100 V"
b10001100 j"
b10001000 0
b10001000 W"
b10001000 h"
1!
#12000
0!
#12500
bx J
bx ("
bx R"
1U
1O
0L
b0xx11010000 +"
b1000000000 l
b1000000000 p
b1000000000 {
b111100000 i
b111100000 q
b111100000 2"
b111100000 5#
b1101000 d
b1101000 6"
b1101000 7#
b11100 K
b11100 S"
b11100 m"
b100011 l"
b11100 O"
b1 Q"
b10 L"
b0 M"
b1 '#
b100011 '"
b1 G"
b1000000000 f
b1000000000 z
b1000000000 ""
b1000000000 .#
b1000 t
b11111111111111111111111111100000 k
b11111111111111111111111111100000 o
b11111111111111111111111111100000 ~
b1101000 g
b1101000 &"
b1101000 4#
b100000010010110000100011 3
b100000010010110000100011 g"
b100000010010110000100011 o"
b10010100 '
b10010100 ~"
b10010100 2
b10010100 f"
b10010100 }"
b10010100 ##
b100010010111000100011 1
b100010010111000100011 i"
b100010010111000100011 k"
b10010000 /
b10010000 V"
b10010000 j"
b10001100 0
b10001100 W"
b10001100 h"
b10 =
b10 5"
b10 I"
b10 ^"
b10 9
b10 B"
b10 a"
b1000000000 <
b1000000000 _"
b1000000000 *#
b1111111 D
b1111111 r
b1111111 ["
b11111111111111111111111111100000 7
b11111111111111111111111111100000 |
b11111111111111111111111111100000 $"
b11111111111111111111111111100000 c"
1:
b10 u
1C
b10001100 >
b10001100 7"
b10001100 ]"
b10001000 ?
b10001000 y
b10001000 %"
b10001000 X"
b10010000 m
b10010000 e"
b10010000 n"
b10010000 z"
b10010000 !#
1!
#13000
0!
#13500
b10011000 '
b10011000 ~"
b1000011100 i
b1000011100 q
b1000011100 2"
b1000011100 5#
b10101000 d
b10101000 6"
b10101000 7#
b10000000010000010000010011 3
b10000000010000010000010011 g"
b10000000010000010000010011 o"
b10011000 2
b10011000 f"
b10011000 }"
b10011000 ##
b1111000 /"
b11100 k
b11100 o
b11100 ~
b10101000 g
b10101000 &"
b10101000 4#
b11000 K
b11000 S"
b11000 m"
b11000 O"
b1000 Q"
b1000 '#
b1000 G"
b10010100 m
b10010100 e"
b10010100 n"
b10010100 z"
b10010100 !#
b10 \
b10 ="
b10 @"
b10 r"
b111100000 b
b111100000 0"
b111100000 9"
b111100000 p"
b111100000 +#
b111100000 0#
1[
b1101000 ]
b1101000 <"
b1101000 {"
b10001100 ^
b10001100 ;"
b10001100 q"
b11100 =
b11100 5"
b11100 I"
b11100 ^"
b1 8
b1 A"
b1 b"
b10 t
b10 E
b10 s
b10 #"
b10 8"
b10 Z"
b0 D
b0 r
b0 ["
b11100 7
b11100 |
b11100 $"
b11100 c"
0:
bx 6
bx 4"
bx d"
1@
b11 u
1H
b10010000 >
b10010000 7"
b10010000 ]"
b10001100 ?
b10001100 y
b10001100 %"
b10001100 X"
b100000010010110000100011 1
b100000010010110000100011 i"
b100000010010110000100011 k"
b10010100 /
b10010100 V"
b10010100 j"
b10010000 0
b10010000 W"
b10010000 h"
1!
#14000
b111111100 i
b111111100 q
b111111100 2"
b111111100 5#
b111100000 l
b111100000 p
b111100000 {
b111100000 f
b111100000 z
b111100000 ""
b111100000 .#
b1 W
b1 D"
b1 ,#
0!
#14500
b0 J
b0 ("
b0 R"
0U
0O
1L
b110000 +"
b1000010100 i
b1000010100 q
b1000010100 2"
b1000010100 5#
b100000 K
b100000 S"
b100000 m"
b10011 l"
b1000 O"
b0 Q"
b0 L"
b1 M"
b0 '#
b10011 '"
b0 G"
b11000 k
b11000 o
b11000 ~
b111111100 l
b111111100 p
b111111100 {
b10 ,"
b1111111 /"
b111111100 f
b111111100 z
b111111100 ""
b111111100 .#
b111100000 %
b111100000 )#
b111100000 -#
b111100000 2#
b111100000 <#
b1100000000011110010011 3
b1100000000011110010011 g"
b1100000000011110010011 o"
b10011100 '
b10011100 ~"
b10011100 2
b10011100 f"
b10011100 }"
b10011100 ##
b10000000010000010000010011 1
b10000000010000010000010011 i"
b10000000010000010000010011 k"
b10011000 /
b10011000 V"
b10011000 j"
b10010100 0
b10010100 W"
b10010100 h"
b11000 =
b11000 5"
b11000 I"
b11000 ^"
b1000 8
b1000 A"
b1000 b"
b11000 7
b11000 |
b11000 $"
b11000 c"
b10010100 >
b10010100 7"
b10010100 ]"
b10010000 ?
b10010000 y
b10010000 %"
b10010000 X"
b11100 \
b11100 ="
b11100 @"
b11100 r"
b10 a
b10 :"
b111111100 b
b111111100 0"
b111111100 9"
b111111100 p"
b111111100 +#
b111111100 0#
0[
bx Y
bx >"
bx t"
1_
b10101000 ]
b10101000 <"
b10101000 {"
b10010000 ^
b10010000 ;"
b10010000 q"
b10 +
b10 C"
b10 w"
b10 (#
b111100000 -
b111100000 u"
b111100000 8#
1)
b10001100 ,
b10001100 v"
b10001100 :#
b10011000 m
b10011000 e"
b10011000 n"
b10011000 z"
b10011000 !#
1!
#15000
b111111000 i
b111111000 q
b111111000 2"
b111111000 5#
b111100000 l
b111100000 p
b111100000 {
b111100000 f
b111100000 z
b111100000 ""
b111100000 .#
b10 W
b10 D"
b10 ,#
b111100000 N
b111100000 U"
b111100000 $#
0!
