sim.vcd
$date
	Fri Dec  2 21:02:02 2022
$end
$version
	Icarus Verilog
$end
$timescale
	10ps
$end
$scope module riscv_tb $end
$var reg 1 ! clk $end
$var reg 1 " rstn $end
$var integer 32 # i [31:0] $end
$scope module my_cpu $end
$var wire 1 ! clk $end
$var wire 1 $ ex_branch_taken_and_jump $end
$var wire 1 " rstn $end
$var wire 32 % wb_write_back_mux_out [31:0] $end
$var wire 2 & pcwrite [1:0] $end
$var wire 32 ' next_pc [31:0] $end
$var wire 2 ( memwb_out_wb_toreg [1:0] $end
$var wire 1 ) memwb_out_wb_regwrite $end
$var wire 32 * memwb_out_wb_readdata [31:0] $end
$var wire 5 + memwb_out_wb_rd [4:0] $end
$var wire 32 , memwb_out_wb_pc_plus_4 [31:0] $end
$var wire 32 - memwb_out_wb_alu_result [31:0] $end
$var wire 32 . mem_readdata [31:0] $end
$var wire 32 / ifid_out_pc_plus_4 [31:0] $end
$var wire 32 0 ifid_out_pc [31:0] $end
$var wire 32 1 ifid_out_instruction [31:0] $end
$var wire 32 2 ifid_in_pc_plus_4 [31:0] $end
$var wire 32 3 ifid_in_instruction [31:0] $end
$var wire 1 4 ifid_flush $end
$var wire 1 5 ifid_bubble $end
$var wire 2 6 idex_out_ex_toreg [1:0] $end
$var wire 32 7 idex_out_ex_sextimm [31:0] $end
$var wire 5 8 idex_out_ex_rs2 [4:0] $end
$var wire 5 9 idex_out_ex_rs1 [4:0] $end
$var wire 1 : idex_out_ex_regwrite $end
$var wire 32 ; idex_out_ex_readdata2 [31:0] $end
$var wire 32 < idex_out_ex_readdata1 [31:0] $end
$var wire 5 = idex_out_ex_rd [4:0] $end
$var wire 32 > idex_out_ex_pc_plus_4 [31:0] $end
$var wire 32 ? idex_out_ex_pc [31:0] $end
$var wire 1 @ idex_out_ex_memwrite $end
$var wire 1 A idex_out_ex_memread $end
$var wire 2 B idex_out_ex_jump [1:0] $end
$var wire 1 C idex_out_ex_immediate $end
$var wire 7 D idex_out_ex_funct7 [6:0] $end
$var wire 3 E idex_out_ex_funct3 [2:0] $end
$var wire 1 F idex_out_ex_branch $end
$var wire 1 G idex_out_ex_add $end
$var wire 1 H idex_bubble $end
$var wire 2 I id_toreg [1:0] $end
$var wire 32 J id_sextimm [31:0] $end
$var wire 1 K id_regwrite $end
$var wire 32 L id_readdata2 [31:0] $end
$var wire 32 M id_readdata1 [31:0] $end
$var wire 1 N id_memwrite $end
$var wire 1 O id_memread $end
$var wire 2 P id_jump [1:0] $end
$var wire 1 Q id_immediate $end
$var wire 1 R id_branch $end
$var wire 1 S id_add $end
$var wire 2 T forwardB [1:0] $end
$var wire 2 U forwardA [1:0] $end
$var wire 32 V exmem_out_mem_writedata [31:0] $end
$var wire 2 W exmem_out_mem_toreg [1:0] $end
$var wire 1 X exmem_out_mem_taken $end
$var wire 1 Y exmem_out_mem_regwrite $end
$var wire 5 Z exmem_out_mem_rd [4:0] $end
$var wire 32 [ exmem_out_mem_pc_target [31:0] $end
$var wire 32 \ exmem_out_mem_pc_plus_4 [31:0] $end
$var wire 1 ] exmem_out_mem_memwrite $end
$var wire 1 ^ exmem_out_mem_memread $end
$var wire 3 _ exmem_out_mem_funct3 [2:0] $end
$var wire 32 ` exmem_out_mem_alu_result [31:0] $end
$var wire 1 a exmem_bubble $end
$var wire 32 b ex_target_pc [31:0] $end
$var wire 32 c ex_rs2_mux_out [31:0] $end
$var wire 32 d ex_rs1_mux_out [31:0] $end
$var wire 32 e ex_pc_plus_immediate [31:0] $end
$var wire 1 f ex_branch_taken $end
$var wire 32 g ex_alu_result [31:0] $end
$var wire 4 h ex_alu_operation [3:0] $end
$var wire 32 i ex_alu_input2 [31:0] $end
$var reg 32 j PC [31:0] $end
$scope module m_alu $end
$var wire 4 k operation [3:0] $end
$var wire 32 l inputy [31:0] $end
$var wire 32 m inputx [31:0] $end
$var reg 32 n result [31:0] $end
$upscope $end
$scope module m_alu_control $end
$var wire 1 C immediate $end
$var wire 7 o funct7 [6:0] $end
$var wire 3 p funct3 [2:0] $end
$var wire 4 q funct [3:0] $end
$var wire 2 r alu_op [1:0] $end
$var wire 1 G add $end
$var reg 4 s operation [3:0] $end
$upscope $end
$scope module m_alu_src2_mux $end
$var wire 1 C select $end
$var wire 32 t in2 [31:0] $end
$var wire 32 u in1 [31:0] $end
$var reg 32 v out [31:0] $end
$upscope $end
$scope module m_branch_control $end
$var wire 32 w inputy [31:0] $end
$var wire 32 x inputx [31:0] $end
$var wire 3 y funct3 [2:0] $end
$var wire 1 F branch $end
$var reg 1 f taken $end
$upscope $end
$scope module m_branch_target_adder $end
$var wire 32 z inputy [31:0] $end
$var wire 32 { inputx [31:0] $end
$var reg 32 | result [31:0] $end
$upscope $end
$scope module m_control $end
$var wire 7 } opcode [6:0] $end
$var wire 2 ~ toreg [1:0] $end
$var wire 1 K regwrite $end
$var wire 1 N memwrite $end
$var wire 1 O memread $end
$var wire 2 !" jump [1:0] $end
$var wire 1 Q immediate $end
$var wire 1 R branch $end
$var wire 1 S add $end
$var reg 10 "" controls [9:0] $end
$upscope $end
$scope module m_data_memory $end
$var wire 1 ! clk $end
$var wire 2 #" maskmode [1:0] $end
$var wire 1 $" sext $end
$var wire 32 %" writedata [31:0] $end
$var wire 1 ] memwrite $end
$var wire 1 ^ memread $end
$var wire 8 &" address_internal [7:0] $end
$var wire 32 '" address [31:0] $end
$var reg 32 (" readdata [31:0] $end
$upscope $end
$scope module m_exmem_reg $end
$var wire 1 ! clk $end
$var wire 32 )" ex_alu_result [31:0] $end
$var wire 1 $ ex_taken $end
$var wire 1 a exmem_bubble $end
$var wire 32 *" ex_writedata [31:0] $end
$var wire 2 +" ex_toreg [1:0] $end
$var wire 1 : ex_regwrite $end
$var wire 5 ," ex_rd [4:0] $end
$var wire 32 -" ex_pc_target [31:0] $end
$var wire 32 ." ex_pc_plus_4 [31:0] $end
$var wire 1 @ ex_memwrite $end
$var wire 1 A ex_memread $end
$var wire 3 /" ex_funct3 [2:0] $end
$var reg 32 0" mem_alu_result [31:0] $end
$var reg 3 1" mem_funct3 [2:0] $end
$var reg 1 ^ mem_memread $end
$var reg 1 ] mem_memwrite $end
$var reg 32 2" mem_pc_plus_4 [31:0] $end
$var reg 32 3" mem_pc_target [31:0] $end
$var reg 5 4" mem_rd [4:0] $end
$var reg 1 Y mem_regwrite $end
$var reg 1 X mem_taken $end
$var reg 2 5" mem_toreg [1:0] $end
$var reg 32 6" mem_writedata [31:0] $end
$upscope $end
$scope module m_forwarding $end
$var wire 1 ! clk $end
$var wire 5 7" exmemrd [4:0] $end
$var wire 1 Y exmemrw $end
$var wire 5 8" rs2 [4:0] $end
$var wire 5 9" rs1 [4:0] $end
$var wire 1 ) memwbrw $end
$var wire 5 :" memwbrd [4:0] $end
$var reg 2 ;" forwardA [1:0] $end
$var reg 2 <" forwardB [1:0] $end
$upscope $end
$scope module m_hazard $end
$var wire 1 ! clk $end
$var wire 1 X exmem_taken $end
$var wire 5 =" rs1 [4:0] $end
$var wire 5 >" rs2 [4:0] $end
$var wire 1 ?" stall_condition $end
$var wire 5 @" idex_rd [4:0] $end
$var wire 1 A idex_memread $end
$var reg 1 a exmem_bubble $end
$var reg 1 H idex_bubble $end
$var reg 1 5 ifid_bubble $end
$var reg 1 4 ifid_flush $end
$var reg 2 A" pcwrite [1:0] $end
$upscope $end
$scope module m_idex_reg $end
$var wire 1 ! clk $end
$var wire 1 S id_add $end
$var wire 1 R id_branch $end
$var wire 3 B" id_funct3 [2:0] $end
$var wire 7 C" id_funct7 [6:0] $end
$var wire 1 Q id_immediate $end
$var wire 2 D" id_jump [1:0] $end
$var wire 1 O id_memread $end
$var wire 1 N id_memwrite $end
$var wire 5 E" id_rd [4:0] $end
$var wire 1 K id_regwrite $end
$var wire 5 F" id_rs1 [4:0] $end
$var wire 5 G" id_rs2 [4:0] $end
$var wire 2 H" id_toreg [1:0] $end
$var wire 1 H idex_bubble $end
$var wire 32 I" id_sextimm [31:0] $end
$var wire 32 J" id_readdata2 [31:0] $end
$var wire 32 K" id_readdata1 [31:0] $end
$var wire 32 L" id_pc_plus_4 [31:0] $end
$var wire 32 M" id_PC [31:0] $end
$var reg 32 N" ex_PC [31:0] $end
$var reg 1 G ex_add $end
$var reg 1 F ex_branch $end
$var reg 3 O" ex_funct3 [2:0] $end
$var reg 7 P" ex_funct7 [6:0] $end
$var reg 1 C ex_immediate $end
$var reg 2 Q" ex_jump [1:0] $end
$var reg 1 A ex_memread $end
$var reg 1 @ ex_memwrite $end
$var reg 32 R" ex_pc_plus_4 [31:0] $end
$var reg 5 S" ex_rd [4:0] $end
$var reg 32 T" ex_readdata1 [31:0] $end
$var reg 32 U" ex_readdata2 [31:0] $end
$var reg 1 : ex_regwrite $end
$var reg 5 V" ex_rs1 [4:0] $end
$var reg 5 W" ex_rs2 [4:0] $end
$var reg 32 X" ex_sextimm [31:0] $end
$var reg 2 Y" ex_toreg [1:0] $end
$upscope $end
$scope module m_ifid_reg $end
$var wire 1 ! clk $end
$var wire 32 Z" if_PC [31:0] $end
$var wire 1 5 ifid_bubble $end
$var wire 1 4 ifid_flush $end
$var wire 32 [" if_pc_plus_4 [31:0] $end
$var wire 32 \" if_instruction [31:0] $end
$var reg 32 ]" id_PC [31:0] $end
$var reg 32 ^" id_instruction [31:0] $end
$var reg 32 _" id_pc_plus_4 [31:0] $end
$upscope $end
$scope module m_immediate_generator $end
$var wire 32 `" instruction [31:0] $end
$var wire 7 a" opcode [6:0] $end
$var reg 32 b" sextimm [31:0] $end
$upscope $end
$scope module m_instruction_memory $end
$var wire 32 c" address [31:0] $end
$var reg 32 d" instruction [31:0] $end
$upscope $end
$scope module m_memwb_reg $end
$var wire 1 ! clk $end
$var wire 32 e" mem_alu_result [31:0] $end
$var wire 32 f" mem_pc_plus_4 [31:0] $end
$var wire 5 g" mem_rd [4:0] $end
$var wire 32 h" mem_readdata [31:0] $end
$var wire 1 Y mem_regwrite $end
$var wire 2 i" mem_toreg [1:0] $end
$var reg 32 j" wb_alu_result [31:0] $end
$var reg 32 k" wb_pc_plus_4 [31:0] $end
$var reg 5 l" wb_rd [4:0] $end
$var reg 32 m" wb_readdata [31:0] $end
$var reg 1 ) wb_regwrite $end
$var reg 2 n" wb_toreg [1:0] $end
$upscope $end
$scope module m_next_pc_mux $end
$var wire 32 o" in2 [31:0] $end
$var wire 32 p" in3 [31:0] $end
$var wire 2 q" select [1:0] $end
$var wire 32 r" in1 [31:0] $end
$var reg 32 s" out [31:0] $end
$upscope $end
$scope module m_pc_plus_4_adder $end
$var wire 32 t" inputx [31:0] $end
$var wire 32 u" inputy [31:0] $end
$var reg 32 v" result [31:0] $end
$upscope $end
$scope module m_register_file $end
$var wire 1 ! clk $end
$var wire 32 w" readdata1 [31:0] $end
$var wire 32 x" readdata2 [31:0] $end
$var wire 5 y" readreg1 [4:0] $end
$var wire 5 z" readreg2 [4:0] $end
$var wire 1 ) wen $end
$var wire 5 {" writereg [4:0] $end
$var wire 32 |" writedata [31:0] $end
$upscope $end
$scope module m_rs1_mux $end
$var wire 32 }" in1 [31:0] $end
$var wire 32 ~" in2 [31:0] $end
$var wire 2 !# select [1:0] $end
$var wire 32 "# in3 [31:0] $end
$var reg 32 ## out [31:0] $end
$upscope $end
$scope module m_rs2_mux $end
$var wire 32 $# in1 [31:0] $end
$var wire 32 %# in2 [31:0] $end
$var wire 2 &# select [1:0] $end
$var wire 32 '# in3 [31:0] $end
$var reg 32 (# out [31:0] $end
$upscope $end
$scope module m_targetPC_mux $end
$var wire 32 )# in1 [31:0] $end
$var wire 32 *# in2 [31:0] $end
$var wire 1 +# select $end
$var reg 32 ,# out [31:0] $end
$upscope $end
$scope module m_write_back_mux $end
$var wire 32 -# in1 [31:0] $end
$var wire 32 .# in2 [31:0] $end
$var wire 32 /# in3 [31:0] $end
$var wire 2 0# select [1:0] $end
$var reg 32 1# out [31:0] $end
$upscope $end
$upscope $end
$upscope $end
$enddefinitions $end
#0
$dumpvars
bx 1#
bx 0#
bx /#
bx .#
bx -#
bx ,#
x+#
bx *#
bx )#
bx (#
bx '#
b0 &#
bx %#
bx $#
bx ##
bx "#
b0 !#
bx ~"
bx }"
bx |"
bx {"
bx z"
bx y"
bx x"
bx w"
bx v"
b100 u"
bx t"
bx s"
bx r"
b0 q"
bx p"
bx o"
bx n"
bx m"
bx l"
bx k"
bx j"
bx i"
b0 h"
bx g"
bx f"
bx e"
bx d"
bx c"
bx b"
bx a"
bx `"
bx _"
bx ^"
bx ]"
bx \"
bx ["
bx Z"
bx Y"
bx X"
bx W"
bx V"
bx U"
bx T"
bx S"
bx R"
bx Q"
bx P"
bx O"
bx N"
bx M"
bx L"
bx K"
bx J"
bx I"
bx H"
bx G"
bx F"
bx E"
bx D"
bx C"
bx B"
b0 A"
bx @"
x?"
bx >"
bx ="
b0 <"
b0 ;"
bx :"
bx 9"
bx 8"
bx 7"
bx 6"
bx 5"
bx 4"
bx 3"
bx 2"
bx 1"
bx 0"
bx /"
bx ."
bx -"
bx ,"
bx +"
bx *"
bx )"
b0 ("
bx '"
bx &"
bx %"
x$"
bx #"
bx ""
bx !"
bx ~
bx }
bx |
bx {
bx z
bx y
bx x
bx w
bx v
bx u
bx t
bx s
bx r
bx q
bx p
bx o
bx n
bx m
bx l
bx k
bx j
bx i
bx h
bx g
xf
bx e
bx d
bx c
bx b
0a
bx `
bx _
x^
x]
bx \
bx [
bx Z
xY
xX
bx W
bx V
b0 U
b0 T
xS
xR
xQ
bx P
xO
xN
bx M
bx L
xK
bx J
bx I
0H
xG
xF
bx E
bx D
xC
bx B
xA
x@
bx ?
bx >
bx =
bx <
bx ;
x:
bx 9
bx 8
bx 7
bx 6
05
04
bx 3
bx 2
bx 1
bx 0
bx /
b0 .
bx -
bx ,
bx +
bx *
x)
bx (
bx '
b0 &
bx %
x$
bx #
0"
0!
$end
#500
b0 %
b0 |"
b0 "#
b0 '#
b0 1#
b0 3
b0 \"
b0 d"
b100 '
b100 s"
b100 2
b100 ["
b100 r"
b100 v"
b0 *
b0 m"
b0 .#
b0 j
b0 Z"
b0 c"
b0 o"
b0 t"
1!
#1000
0!
#1500
0R
0O
b0 I
b0 ~
b0 H"
0S
0N
0K
0Q
b0 P
b0 !"
b0 D"
b0 ""
b0 J
b0 I"
b0 b"
b0 a"
b0 E"
b0 G"
b0 F"
b0 B"
b0 C"
b0 L
b0 J"
b0 x"
b0 z"
b0 M
b0 K"
b0 w"
b0 y"
b0 }
b0 >"
b0 ="
b0 1
b0 ^"
b0 `"
b100 /
b100 L"
b100 _"
b0 0
b0 M"
b0 ]"
1!
#2000
0!
#2500
b0 i
b0 l
b0 v
b0 g
b0 n
b0 )"
b0 *#
0$
b0 b
b0 -"
b0 ,#
b0 c
b0 u
b0 w
b0 *"
b0 (#
b0 d
b0 m
b0 x
b0 ##
0?"
0+#
b0 h
b0 k
b0 s
0f
b0 e
b0 |
b0 )#
b0 =
b0 ,"
b0 @"
b0 S"
b0 8
b0 8"
b0 W"
b0 9
b0 9"
b0 V"
b0 ;
b0 U"
b0 $#
b0 <
b0 T"
b0 }"
b0 q
b0 E
b0 p
b0 y
b0 /"
b0 O"
b0 D
b0 o
b0 P"
b0 7
b0 t
b0 z
b0 X"
0:
b0 6
b0 +"
b0 Y"
0@
0A
b0 B
b0 Q"
0C
b0 r
0G
0F
b100 >
b100 ."
b100 R"
b0 ?
b0 {
b0 N"
1!
#3000
0!
#3500
0$"
b0 #"
b0 &"
b0 Z
b0 4"
b0 7"
b0 g"
b0 _
b0 1"
b0 V
b0 %"
b0 6"
b0 `
b0 '"
b0 0"
b0 e"
b0 ~"
b0 %#
0Y
b0 W
b0 5"
b0 i"
0]
0^
0X
b0 [
b0 3"
b0 p"
b100 \
b100 2"
b100 f"
1!
#4000
0!
#4500
b0 +
b0 :"
b0 l"
b0 {"
b0 -
b0 j"
b0 -#
0)
b0 (
b0 n"
b0 0#
b100 ,
b100 k"
b100 /#
1!
#5000
0!
#5500
1!
#6000
0!
1"
#6500
b1000010000000000000001101111 3
b1000010000000000000001101111 \"
b1000010000000000000001101111 d"
b1000 '
b1000 s"
b1000 2
b1000 ["
b1000 r"
b1000 v"
b100 j
b100 Z"
b100 c"
b100 o"
b100 t"
1!
#7000
0!
#7500
b10 I
b10 ~
b10 H"
xS
1K
1Q
b1 P
b1 !"
b1 D"
b10x01101 ""
b11111110000000010000000100010011 3
b11111110000000010000000100010011 \"
b11111110000000010000000100010011 d"
b1100 '
b1100 s"
b1100 2
b1100 ["
b1100 r"
b1100 v"
b10000100 J
b10000100 I"
b10000100 b"
b1101111 a"
b100 G"
b100 C"
b100 z"
b1101111 }
b100 >"
b1000 j
b1000 Z"
b1000 c"
b1000 o"
b1000 t"
b1000010000000000000001101111 1
b1000010000000000000001101111 ^"
b1000010000000000000001101111 `"
b1000 /
b1000 L"
b1000 _"
b100 0
b100 M"
b100 ]"
1!
#8000
0!
#8500
b0 I
b0 ~
b0 H"
0S
b0 P
b0 !"
b0 D"
b1100 ""
1$
b10000100 g
b10000100 n
b10000100 )"
b10000100 *#
b10001000 b
b10001000 -"
b10001000 ,#
b11111111111111111111111111100000 J
b11111111111111111111111111100000 I"
b11111111111111111111111111100000 b"
b10011 a"
b10 E"
b0 G"
b10 F"
b1111111 C"
b0 z"
b1000000000 M
b1000000000 K"
b1000000000 w"
b10 y"
b10011 }
b0 >"
b10 ="
b10000100 i
b10000100 l
b10000100 v
b10001000 e
b10001000 |
b10001000 )#
b100010010111000100011 3
b100010010111000100011 \"
b100010010111000100011 d"
b10000 '
b10000 s"
b10000 2
b10000 ["
b10000 r"
b10000 v"
b11111110000000010000000100010011 1
b11111110000000010000000100010011 ^"
b11111110000000010000000100010011 `"
b1100 /
b1100 L"
b1100 _"
b1000 0
b1000 M"
b1000 ]"
b100 8
b100 8"
b100 W"
b100 D
b100 o
b100 P"
b10000100 7
b10000100 t
b10000100 z
b10000100 X"
1:
b10 6
b10 +"
b10 Y"
b1 B
b1 Q"
1C
b1x r
xG
b1000 >
b1000 ."
b1000 R"
b100 ?
b100 {
b100 N"
b1100 j
b1100 Z"
b1100 c"
b1100 o"
b1100 t"
1!
#9000
0!
#9500
bx I
bx ~
bx H"
1S
1N
0K
b10100 '
b10100 s"
b111100000 g
b111100000 n
b111100000 )"
b111100000 *#
0$
b11111111111111111111111111101000 b
b11111111111111111111111111101000 -"
b11111111111111111111111111101000 ,#
b0xx110100 ""
b100000010010110000100011 3
b100000010010110000100011 \"
b100000010010110000100011 d"
b10100 2
b10100 ["
b10100 r"
b10100 v"
b100001 &"
b1000000000 d
b1000000000 m
b1000000000 x
b1000000000 ##
b1000 q
b11111111111111111111111111100000 i
b11111111111111111111111111100000 l
b11111111111111111111111111100000 v
b11111111111111111111111111101000 e
b11111111111111111111111111101000 |
b11111111111111111111111111101000 )#
b11100 J
b11100 I"
b11100 b"
b100011 a"
b11100 E"
b1 G"
b10 B"
b0 C"
b1 z"
b100011 }
b1 >"
b10000 j
b10000 Z"
b10000 c"
b10000 o"
b10000 t"
b10000100 `
b10000100 '"
b10000100 0"
b10000100 e"
b10000100 ~"
b10000100 %#
1Y
b10 W
b10 5"
b10 i"
1X
b10001000 [
b10001000 3"
b10001000 p"
b1000 \
b1000 2"
b1000 f"
b10 =
b10 ,"
b10 @"
b10 S"
b0 8
b0 8"
b0 W"
b10 9
b10 9"
b10 V"
b1000000000 <
b1000000000 T"
b1000000000 }"
b1111111 D
b1111111 o
b1111111 P"
b11111111111111111111111111100000 7
b11111111111111111111111111100000 t
b11111111111111111111111111100000 z
b11111111111111111111111111100000 X"
b0 6
b0 +"
b0 Y"
b0 B
b0 Q"
b10 r
0G
b1100 >
b1100 ."
b1100 R"
b1000 ?
b1000 {
b1000 N"
b100010010111000100011 1
b100010010111000100011 ^"
b100010010111000100011 `"
b10000 /
b10000 L"
b10000 _"
b1100 0
b1100 M"
b1100 ]"
1!
#10000
b10001000 '
b10001000 s"
1a
1H
14
b10 &
b10 A"
b10 q"
0!
#10500
b0 I
b0 ~
b0 H"
0S
0N
0Q
b0 ""
b0 b
b0 -"
b0 ,#
b0 g
b0 n
b0 )"
b0 *#
b0 J
b0 I"
b0 b"
b0 a"
b0 E"
b0 G"
b0 F"
b0 B"
b0 z"
b0 M
b0 K"
b0 w"
b0 y"
b0 }
b0 >"
b0 ="
b0 q
b0 h
b0 k
b0 s
b0 i
b0 l
b0 v
b0 e
b0 |
b0 )#
b0 &"
b0 d
b0 m
b0 x
b0 ##
b1000 %
b1000 |"
b1000 "#
b1000 '#
b1000 1#
b11111110000000010000000100010011 3
b11111110000000010000000100010011 \"
b11111110000000010000000100010011 d"
b0 '
b0 s"
b10001100 2
b10001100 ["
b10001100 r"
b10001100 v"
b0 1
b0 ^"
b0 `"
b0 /
b0 L"
b0 _"
b0 0
b0 M"
b0 ]"
b0 =
b0 ,"
b0 @"
b0 S"
b0 9
b0 9"
b0 V"
b0 <
b0 T"
b0 }"
b0 D
b0 o
b0 P"
b0 7
b0 t
b0 z
b0 X"
0:
b0 r
0C
b0 >
b0 ."
b0 R"
b0 ?
b0 {
b0 N"
b0 `
b0 '"
b0 0"
b0 e"
b0 ~"
b0 %#
0Y
b0 W
b0 5"
b0 i"
0X
b0 [
b0 3"
b0 p"
b0 \
b0 2"
b0 f"
b10000100 -
b10000100 j"
b10000100 -#
1)
b10 (
b10 n"
b10 0#
b1000 ,
b1000 k"
b1000 /#
b10001000 j
b10001000 Z"
b10001000 c"
b10001000 o"
b10001000 t"
1!
#11000
b10001100 '
b10001100 s"
0H
b0 &
b0 A"
b0 q"
0a
04
0!
#11500
1K
1Q
b1100 ""
b100010010111000100011 3
b100010010111000100011 \"
b100010010111000100011 d"
b10010000 '
b10010000 s"
b10010000 2
b10010000 ["
b10010000 r"
b10010000 v"
b0 %
b0 |"
b0 "#
b0 '#
b0 1#
b11111111111111111111111111100000 J
b11111111111111111111111111100000 I"
b11111111111111111111111111100000 b"
b10011 a"
b10 E"
b10 F"
b1111111 C"
b1000000000 M
b1000000000 K"
b1000000000 w"
b10 y"
b10011 }
b10 ="
b10001100 j
b10001100 Z"
b10001100 c"
b10001100 o"
b10001100 t"
b0 -
b0 j"
b0 -#
0)
b0 (
b0 n"
b0 0#
b0 ,
b0 k"
b0 /#
b11111110000000010000000100010011 1
b11111110000000010000000100010011 ^"
b11111110000000010000000100010011 `"
b10001100 /
b10001100 L"
b10001100 _"
b10001000 0
b10001000 M"
b10001000 ]"
1!
#12000
0!
#12500
bx I
bx ~
bx H"
1S
1N
0K
b0xx110100 ""
b111100000 g
b111100000 n
b111100000 )"
b111100000 *#
b1101000 b
b1101000 -"
b1101000 ,#
b11100 J
b11100 I"
b11100 b"
b100011 a"
b11100 E"
b1 G"
b10 B"
b0 C"
b1 z"
b100011 }
b1 >"
b1000000000 d
b1000000000 m
b1000000000 x
b1000000000 ##
b1000 q
b11111111111111111111111111100000 i
b11111111111111111111111111100000 l
b11111111111111111111111111100000 v
b1101000 e
b1101000 |
b1101000 )#
b100000010010110000100011 3
b100000010010110000100011 \"
b100000010010110000100011 d"
b10010100 '
b10010100 s"
b10010100 2
b10010100 ["
b10010100 r"
b10010100 v"
b100010010111000100011 1
b100010010111000100011 ^"
b100010010111000100011 `"
b10010000 /
b10010000 L"
b10010000 _"
b10001100 0
b10001100 M"
b10001100 ]"
b10 =
b10 ,"
b10 @"
b10 S"
b10 9
b10 9"
b10 V"
b1000000000 <
b1000000000 T"
b1000000000 }"
b1111111 D
b1111111 o
b1111111 P"
b11111111111111111111111111100000 7
b11111111111111111111111111100000 t
b11111111111111111111111111100000 z
b11111111111111111111111111100000 X"
1:
b10 r
1C
b10001100 >
b10001100 ."
b10001100 R"
b10001000 ?
b10001000 {
b10001000 N"
b10010000 j
b10010000 Z"
b10010000 c"
b10010000 o"
b10010000 t"
1!
#13000
0!
#13500
b10011000 '
b10011000 s"
b1000011100 g
b1000011100 n
b1000011100 )"
b1000011100 *#
b10101000 b
b10101000 -"
b10101000 ,#
b10000000010000010000010011 3
b10000000010000010000010011 \"
b10000000010000010000010011 d"
b10011000 2
b10011000 ["
b10011000 r"
b10011000 v"
b1111000 &"
b11100 i
b11100 l
b11100 v
b10101000 e
b10101000 |
b10101000 )#
b11000 J
b11000 I"
b11000 b"
b11000 E"
b1000 G"
b1000 z"
b1000 >"
b10010100 j
b10010100 Z"
b10010100 c"
b10010100 o"
b10010100 t"
b10 Z
b10 4"
b10 7"
b10 g"
b111100000 `
b111100000 '"
b111100000 0"
b111100000 e"
b111100000 ~"
b111100000 %#
1Y
b1101000 [
b1101000 3"
b1101000 p"
b10001100 \
b10001100 2"
b10001100 f"
b11100 =
b11100 ,"
b11100 @"
b11100 S"
b1 8
b1 8"
b1 W"
b10 q
b10 E
b10 p
b10 y
b10 /"
b10 O"
b0 D
b0 o
b0 P"
b11100 7
b11100 t
b11100 z
b11100 X"
0:
bx 6
bx +"
bx Y"
1@
b11 r
1G
b10010000 >
b10010000 ."
b10010000 R"
b10001100 ?
b10001100 {
b10001100 N"
b100000010010110000100011 1
b100000010010110000100011 ^"
b100000010010110000100011 `"
b10010100 /
b10010100 L"
b10010100 _"
b10010000 0
b10010000 M"
b10010000 ]"
1!
#14000
b111111100 g
b111111100 n
b111111100 )"
b111111100 *#
b111100000 d
b111100000 m
b111100000 x
b111100000 ##
b1 U
b1 ;"
b1 !#
0!
#14500
b0 I
b0 ~
b0 H"
0S
0N
1K
b1100 ""
b1000010100 g
b1000010100 n
b1000010100 )"
b1000010100 *#
b100000 J
b100000 I"
b100000 b"
b10011 a"
b1000 E"
b0 G"
b0 B"
b1 C"
b0 z"
b10011 }
b0 >"
b11000 i
b11000 l
b11000 v
b10 #"
b1111111 &"
b111111100 d
b111111100 m
b111111100 x
b111111100 ##
b111100000 %
b111100000 |"
b111100000 "#
b111100000 '#
b111100000 1#
b1100000000011110010011 3
b1100000000011110010011 \"
b1100000000011110010011 d"
b10011100 '
b10011100 s"
b10011100 2
b10011100 ["
b10011100 r"
b10011100 v"
b10000000010000010000010011 1
b10000000010000010000010011 ^"
b10000000010000010000010011 `"
b10011000 /
b10011000 L"
b10011000 _"
b10010100 0
b10010100 M"
b10010100 ]"
b11000 =
b11000 ,"
b11000 @"
b11000 S"
b1000 8
b1000 8"
b1000 W"
b11000 7
b11000 t
b11000 z
b11000 X"
b10010100 >
b10010100 ."
b10010100 R"
b10010000 ?
b10010000 {
b10010000 N"
b11100 Z
b11100 4"
b11100 7"
b11100 g"
b10 _
b10 1"
b111111100 `
b111111100 '"
b111111100 0"
b111111100 e"
b111111100 ~"
b111111100 %#
0Y
bx W
bx 5"
bx i"
1]
b10101000 [
b10101000 3"
b10101000 p"
b10010000 \
b10010000 2"
b10010000 f"
b10 +
b10 :"
b10 l"
b10 {"
b111100000 -
b111100000 j"
b111100000 -#
1)
b10001100 ,
b10001100 k"
b10001100 /#
b10011000 j
b10011000 Z"
b10011000 c"
b10011000 o"
b10011000 t"
1!
#15000
b111111000 g
b111111000 n
b111111000 )"
b111111000 *#
b111100000 d
b111100000 m
b111100000 x
b111100000 ##
b10 U
b10 ;"
b10 !#
b111100000 M
b111100000 K"
b111100000 w"
0!
#15500
b0 d
b0 m
b0 x
b0 ##
b100000 g
b100000 n
b100000 )"
b100000 *#
b10110100 b
b10110100 -"
b10110100 ,#
b11111110111101000010011000100011 3
b11111110111101000010011000100011 \"
b11111110111101000010011000100011 d"
b10100000 '
b10100000 s"
b10100000 2
b10100000 ["
b10100000 r"
b10100000 v"
b0 %
b0 |"
b0 "#
b0 '#
b0 1#
b1111110 &"
b100000 i
b100000 l
b100000 v
b10110100 e
b10110100 |
b10110100 )#
b11 J
b11 I"
b11 b"
b1111 E"
b11 G"
b0 F"
b0 C"
b11 z"
b0 M
b0 K"
b0 w"
b0 y"
b11 >"
b0 ="
b10011100 j
b10011100 Z"
b10011100 c"
b10011100 o"
b10011100 t"
b11100 +
b11100 :"
b11100 l"
b11100 {"
b111111100 -
b111111100 j"
b111111100 -#
0)
bx (
bx n"
bx 0#
b10010000 ,
b10010000 k"
b10010000 /#
b11000 Z
b11000 4"
b11000 7"
b11000 g"
b111111000 `
b111111000 '"
b111111000 0"
b111111000 e"
b111111000 ~"
b111111000 %#
b10010100 \
b10010100 2"
b10010100 f"
b1000 =
b1000 ,"
b1000 @"
b1000 S"
b0 8
b0 8"
b0 W"
b111100000 <
b111100000 T"
b111100000 }"
b0 q
b0 E
b0 p
b0 y
b0 /"
b0 O"
b1 D
b1 o
b1 P"
b100000 7
b100000 t
b100000 z
b100000 X"
1:
b0 6
b0 +"
b0 Y"
0@
b10 r
0G
b10011000 >
b10011000 ."
b10011000 R"
b10010100 ?
b10010100 {
b10010100 N"
b1100000000011110010011 1
b1100000000011110010011 ^"
b1100000000011110010011 `"
b10011100 /
b10011100 L"
b10011100 _"
b10011000 0
b10011000 M"
b10011000 ]"
1!
#16000
b1000000000 g
b1000000000 n
b1000000000 )"
b1000000000 *#
b111100000 d
b111100000 m
b111100000 x
b111100000 ##
b0 U
b0 ;"
b0 !#
0!
